<?xml version="1.0" encoding="UTF-8" standalone="no"?>
<!DOCTYPE svg PUBLIC "-//W3C//DTD SVG 1.1//EN" "http://www.w3.org/Graphics/SVG/1.1/DTD/svg11.dtd">
<svg width="100%" height="100%" viewBox="0 0 52 53" version="1.1" xmlns="http://www.w3.org/2000/svg" xmlns:xlink="http://www.w3.org/1999/xlink" xml:space="preserve" xmlns:serif="http://www.serif.com/" style="fill-rule:evenodd;clip-rule:evenodd;stroke-linejoin:round;stroke-miterlimit:2;">
    <g transform="matrix(1,0,0,1,-238,-275)">
        <g id="icon-inthisarea">
            <g transform="matrix(0.128451,0,0,0.128451,7.07003,56.742)">
                <path d="M2000,1705.32C2110.38,1705.32 2200,1794.94 2200,1905.32C2200,2015.71 2110.38,2105.32 2000,2105.32C1889.62,2105.32 1800,2015.71 1800,1905.32C1800,1794.94 1889.62,1705.32 2000,1705.32ZM2000,1742.69C2089.76,1742.69 2162.63,1815.56 2162.63,1905.32C2162.63,1995.08 2089.76,2067.95 2000,2067.95C1910.24,2067.95 1837.37,1995.08 1837.37,1905.32C1837.37,1815.56 1910.24,1742.69 2000,1742.69Z" style="fill:white;"/>
            </g>
            <g transform="matrix(0.119678,0,0,0.121674,214.227,-73.5214)">
                <path d="M472.452,2963.14C472.452,2963.14 453.815,2974.62 424.017,2998.88C417.628,3004.08 411.982,3009.03 405.485,3015.48C397.972,3022.94 390.64,3030.35 383.796,3039.36C379.584,3044.9 375.841,3050.91 372.587,3057.16C370.116,3061.9 368.199,3066.79 366.422,3071.8C361.951,3084.4 358.676,3096.03 355.837,3108.16C344.454,3156.76 341.094,3190.65 341.094,3190.65C338.263,3195.56 339.946,3201.84 344.849,3204.67C349.751,3207.5 356.03,3205.81 358.861,3200.91C358.861,3200.91 386.538,3181.05 422.933,3146.9C432.013,3138.37 440.449,3129.72 449.128,3119.55C452.577,3115.51 455.853,3111.4 458.726,3106.89C462.508,3100.95 465.839,3094.7 468.534,3088.28C472.913,3077.85 475.665,3067.8 478.37,3057.56C480.71,3048.71 482.174,3041.34 483.483,3033.21C489.586,2995.28 490.218,2973.39 490.218,2973.39C493.049,2968.49 491.367,2962.21 486.464,2959.38C481.561,2956.55 475.282,2958.23 472.452,2963.14ZM415.656,3054.18C431.022,3054.18 443.497,3066.66 443.497,3082.02C443.497,3097.39 431.022,3109.86 415.656,3109.86C400.291,3109.86 387.816,3097.39 387.816,3082.02C387.816,3066.66 400.291,3054.18 415.656,3054.18Z" style="fill:white;"/>
            </g>
        </g>
    </g>
</svg>
