// Jest Snapshot v1, https://goo.gl/fbAQLP

exports[`Header renders correctly 1`] = `
<header
  className="StyledBox-sc-13pk1d4-0 gUlezM"
>
  <h1
    className="StyledHeading-sc-1rdh4aw-0 kZPGVt"
  >
    <a
      href="/"
      style={
        Object {
          "color": "white",
          "textDecoration": "none",
        }
      }
    >
      Default Starter
    </a>
  </h1>
</header>
`;
